{
	"schema_version": "1.0.0",
	"name": "Matt's Pseudoinstructions",
	"uuid": "8043cc1f-7789-44e2-99b4-ebb792fb2de4",
	"version": "2.0.0",
	"author": "Matt Pharoah (falcobuster)",
	"description": "Some macros for additional pseudoinstructions",
	"entry_defines": "macros.asm"
}
